{
  "documents": [
    {
      "id": "sticker-dev-doc-v1",
      "title": "表情包生成工具 - 开发文档 v1.0",
      "date": "2026-04-24",
      "category": "开发文档",
      "excerpt": "表情包生成工具完整开发文档，包含产品定位、技术架构、前后端API设计、数据库设计、AI方案、开发里程碑。",
      "source": "local",
      "content": "# 表情包生成工具 - 开发文档\n\n> 版本：v1.0 | 日期：2026-04-24 | 状态：待确认\n\n---\n\n## 一、项目概述\n\n### 1.1 产品定位\n\n**产品名称：** 表情包生成工具（名字待定）\n**核心功能：** 用户上传角色图片，一键生成 Q 版 16 宫格表情包\n**目标用户：** 微信/QQ/微博等社交平台用户，需要趣味表情包进行聊天互动\n\n### 1.2 商业模型\n\n**能量币付费制：**\n\n| 套餐 | 价格 | 能量 | 静态生成次数 | 动态生成次数 |\n|------|------|------|-------------|-------------|\n| 轻量创作包 | ¥9.9 | 100 | 6次 | 2次 |\n| 常用创作包 ⭐ | ¥19.9 | 250 | 15次 | 5次 |\n| 高频创作包 | ¥39.9 | 590 | 35次 | 12次 |\n| 单次动图体验 | ¥0.99 | 20 | 0 | 1 |\n| 3次动图 | ¥3.9 | 60 | 0 | 3 |\n| 8次动图 | ¥6.9 | 160 | 0 | 8 |\n| 整套动图16次 | ¥12.9 | 320 | 0 | 16 |\n\n**能量消耗规则：**\n- 静态生成（16宫格）：约 10-15 能量/次\n- 动态生成（GIF）：约 20-30 能量/次\n\n### 1.3 对标参考\n\n**参考站点：** https://meow.yyr5.com/\n\n---\n\n## 二、技术架构\n\n### 2.1 架构图\n\n```\n用户浏览器\n    │\n    ▼\n┌─────────────────────────────────────┐\n│         前端（静态部署）             │\n│  Vite + React + TailwindCSS         │\n│  托管：Cloudflare Pages             │\n└────────────────┬────────────────────┘\n                 │ HTTPS\n                 ▼\n┌─────────────────────────────────────┐\n│         后端 API（Node.js）          │\n│  Express + 图像处理                  │\n│  托管：43.139.124.235               │\n└────────────────┬────────────────────┘\n                 │\n       ┌─────────┴──────────┐\n       ▼                  ▼\n┌─────────────┐    ┌─────────────────┐\n│  数据库      │    │  AI 图像 API    │\n│  MySQL/PG   │    │  Flux / SD / 国产│\n└─────────────┘    └─────────────────┘\n```\n\n### 2.2 技术栈\n\n| 层级 | 技术选型 | 说明 |\n|------|---------|------|\n| 前端框架 | React + Vite | 与参考站点一致 |\n| 样式 | TailwindCSS | 与参考站点一致 |\n| 部署 | Cloudflare Pages | 静态托管，免费 CDN |\n| 后端 | Node.js + Express | RESTful API |\n| 数据库 | PostgreSQL | 存用户、订单、能量 |\n| 对象存储 | 七牛云 CDN | 存用户上传图、生成图 |\n| AI API | 待定（Flux/通义万相） | 图像生成 |\n| 支付 | 微信支付（后续） | 能量充值 |\n\n---\n\n## 三、前端功能模块\n\n### 3.1 页面结构\n\n```\n/ (首页)\n  ├── 上传角色图片区域（拖拽/点击上传）\n  ├── 选择模板主题（12个主题可选）\n  ├── 选择切片表情（16/32张）\n  ├── 预览区域\n  └── 生成按钮\n\n/mytasks (我的作品)\n  ├── 生成任务列表\n  ├── 任务状态（生成中/成功/失败）\n  └── 下载/重试/删除\n\n/recharge (充值中心)\n  ├── 能量余额展示\n  ├── 套餐列表\n  └── 购买按钮\n\n/profile (个人中心)\n  ├── 用户信息\n  ├── 能量明细\n  ├── 订单历史\n  └── 设置\n```\n\n### 3.2 核心交互流程\n\n```\n1. 上传角色图 → 2. 选择模板 → 3. 选切片表情 → 4. 确认生成 → 5. 支付能量 → 6. 等待处理 → 7. 下载\n```\n\n### 3.3 表情包模板主题（12个）\n\n| ID | 名称 | 切片数 | 场景 |\n|----|------|--------|------|\n| office-stress | 职场抓狂16格 | 16 | 焦虑、崩溃、忙碌、加班 |\n| work-meltdown | 职场发疯 | 32 | 开会、DDL、高压情绪 |\n| new-year-chibi | 新春萌系 | 16 | 拜年、祈福、庆祝 |\n| romance-sticky | 恋爱贴贴 | 32 | 心动、撒娇、吃醋 |\n| friends-roast | 朋友互怼 | 32 | 群聊互损、夸张表情 |\n| commute-grind | 通勤打工 | 32 | 早八到下班链路 |\n| foodie-daily | 干饭日常 | 16 | 催饭、吃撑、减肥 |\n| gaming-esports | 游戏电竞 | 16 | 开黑、上分、红温 |\n| fortune-wishes | 发财好运 | 16 | 红包、求好运 |\n| home-slouch | 宅家摆烂 | 16 | 周末、追剧 |\n| pet-buddy | 萌宠互动 | 16 | 卖萌、装乖、拆家 |\n| social-replies | 社交回复 | 16 | 常见聊天回复 |\n\n---\n\n## 四、后端 API 设计\n\n### 4.1 API 列表\n\n#### 认证相关\n| 方法 | 路径 | 说明 |\n|------|------|------|\n| POST | `/api/auth/wechat/qr` | 获取微信登录二维码 |\n| GET | `/api/auth/status?ticket=` | 轮询登录状态 |\n| POST | `/api/auth/logout` | 退出登录 |\n| GET | `/api/me` | 获取当前用户信息 |\n\n#### 模板相关\n| 方法 | 路径 | 说明 |\n|------|------|------|\n| GET | `/api/template-collections` | 获取所有主题 |\n| GET | `/api/template-collections/:id/slices` | 获取某主题的切片素材 |\n\n#### 生成任务\n| 方法 | 路径 | 说明 |\n|------|------|------|\n| POST | `/api/generation-tasks` | 创建生成任务 |\n| GET | `/api/generation-tasks` | 任务列表（分页+筛选） |\n| GET | `/api/generation-tasks/:id` | 任务详情 |\n| DELETE | `/api/generation-tasks/:id` | 删除任务 |\n| POST | `/api/generation-tasks/:id/retry` | 重试失败任务 |\n\n#### 充值付费\n| 方法 | 路径 | 说明 |\n|------|------|------|\n| GET | `/api/recharge/products` | 获取充值套餐 |\n| POST | `/api/pay/orders` | 创建支付订单 |\n| POST | `/api/pay/orders/:id/poll` | 轮询支付状态 |\n| POST | `/api/pay/orders/:id/cancel` | 取消订单 |\n| GET | `/api/me/orders` | 订单历史 |\n| GET | `/api/me/energy-ledger` | 能量变动明细 |\n\n### 4.2 核心 API 详情\n\n#### POST /api/generation-tasks（创建任务）\n\n**请求：**\n```json\n{\n  \"templateId\": \"office-stress\",\n  \"imageUrl\": \"https://xxx.com/user-upload/xxx.jpg\",\n  \"sliceIds\": [\"s1\", \"s3\", \"s5\", \"s7\"],\n  \"type\": \"static\"\n}\n```\n\n**响应：**\n```json\n{\n  \"task\": {\n    \"id\": \"task_xxx\",\n    \"status\": \"pending\",\n    \"resultUrl\": null,\n    \"energyCost\": 10\n  },\n  \"energyBalance\": 85\n}\n```\n\n#### GET /api/generation-tasks（任务列表）\n\n**Query参数：** `page`, `limit`, `category`, `status`, `keyword`\n\n**响应：**\n```json\n{\n  \"tasks\": [...],\n  \"total\": 100,\n  \"page\": 1,\n  \"limit\": 20,\n  \"hasMore\": true,\n  \"summary\": {\n    \"total\": 100,\n    \"running\": 2,\n    \"succeeded\": 90,\n    \"failed\": 8\n  }\n}\n```\n\n---\n\n## 五、数据库设计\n\n### 5.1 数据表\n\n#### users（用户表）\n| 字段 | 类型 | 说明 |\n|------|------|------|\n| id | UUID | 主键 |\n| wx_openid | VARCHAR(64) | 微信openid |\n| nickname | VARCHAR(32) | 昵称 |\n| avatar_url | VARCHAR(255) | 头像 |\n| energy_balance | INT | 能量余额 |\n| created_at | TIMESTAMP | 创建时间 |\n\n#### templates（模板表）\n| 字段 | 类型 | 说明 |\n|------|------|------|\n| id | VARCHAR(32) | 主键 |\n| name | VARCHAR(64) | 模板名 |\n| description | TEXT | 描述 |\n| cover_url | VARCHAR(255) | 封面图 |\n| slice_count | INT | 切片数量 |\n| is_default | BOOLEAN | 是否默认 |\n\n#### template_slices（切片表）\n| 字段 | 类型 | 说明 |\n|------|------|------|\n| id | VARCHAR(32) | 主键 |\n| template_id | VARCHAR(32) | 所属模板 |\n| slice_index | INT | 序号 |\n| image_url | VARCHAR(255) | 切片图片URL |\n\n#### generation_tasks（生成任务表）\n| 字段 | 类型 | 说明 |\n|------|------|------|\n| id | UUID | 主键 |\n| user_id | UUID | 用户ID |\n| template_id | VARCHAR(32) | 模板ID |\n| source_image | VARCHAR(255) | 用户上传的原图 |\n| result_url | VARCHAR(255) | 生成结果图 |\n| status | ENUM | pending/running/success/failed |\n| type | ENUM | static/dynamic |\n| energy_cost | INT | 消耗能量 |\n| error_message | TEXT | 错误信息 |\n| created_at | TIMESTAMP | 创建时间 |\n\n#### energy_ledger（能量流水表）\n| 字段 | 类型 | 说明 |\n|------|------|------|\n| id | UUID | 主键 |\n| user_id | UUID | 用户ID |\n| amount | INT | 变动数量（正/负） |\n| type | ENUM | charge/consume/refund/signup |\n| task_id | UUID | 关联任务（消费时） |\n| description | VARCHAR(128) | 说明 |\n| created_at | TIMESTAMP | 时间 |\n\n#### orders（订单表）\n| 字段 | 类型 | 说明 |\n|------|------|------|\n| id | UUID | 主键 |\n| user_id | UUID | 用户ID |\n| product_id | VARCHAR(32) | 套餐ID |\n| amount | DECIMAL(10,2) | 金额（元） |\n| energy_amount | INT | 获得能量 |\n| status | ENUM | pending/paid/cancelled/refunded |\n| trade_no | VARCHAR(64) | 支付流水号 |\n| paid_at | TIMESTAMP | 支付时间 |\n| created_at | TIMESTAMP | 创建时间 |\n\n---\n\n## 六、AI 图像生成方案\n\n### 6.1 角色提取 + 模板融合\n\n**流程：**\n1. 用户上传角色图\n2. AI 提取角色特征（人脸、衣着、风格）\n3. 将角色特征融合进用户选择的 16 张模板切片\n4. 输出 16 张融合图，拼接成 4×4 宫格\n\n### 6.2 AI API 选型\n\n| 方案 | API | 成本 | 效果 | 速度 |\n|------|-----|------|------|------|\n| 推荐 | 通义万相 Wanx2.1 | ~0.1元/张 | ⭐⭐⭐ | 快 |\n| 备选 | Flux Dev | ~0.05元/张 | ⭐⭐⭐⭐ | 中 |\n| 备选 | Midjourney | ~0.2元/张 | ⭐⭐⭐⭐⭐ | 慢 |\n\n### 6.3 优化策略\n\n- 首批上线先用**模板融合**方案（简单换脸，不走 AI 生成，大幅降低成本）\n- 用户量大后升级 AI 生成方案\n- 静态生成（16宫格）优先，动态 GIF 后续再上\n\n---\n\n## 七、开发里程碑\n\n### Phase 1：基础框架（1-2天）\n- [ ] 项目初始化（React + Vite + TailwindCSS）\n- [ ] 页面结构搭建（首页/作品/充值/个人中心）\n- [ ] 登录流程（微信扫码登录，后端对接）\n- [ ] 静态模板系统（12个主题，预先画好的素材）\n\n### Phase 2：核心功能（2-3天）\n- [ ] 图片上传功能\n- [ ] 模板选择交互\n- [ ] 生成任务流程\n- [ ] 任务列表页\n- [ ] 能量余额系统\n\n### Phase 3：付费系统（1-2天）\n- [ ] 充值套餐页\n- [ ] 支付流程（先接易支付/码支付）\n- [ ] 订单系统\n- [ ] 能量到账\n\n### Phase 4：AI 能力（2-3天）\n- [ ] 角色提取 API 接入\n- [ ] 模板融合/AI 生成\n- [ ] 动态 GIF 生成（可选）\n\n### Phase 5：上线优化（1天）\n- [ ] 域名解析配置\n- [ ] 数据库初始化\n- [ ] 压力测试\n- [ ] 上线\n\n**预计总工期：7-12 天**\n\n---\n\n## 八、待确认事项\n\n1. **域名：** 域名是什么？我需要配置 DNS 解析\n2. **数据库：** 数据库连接信息（Host/端口/账号/密码）\n3. **AI API：** 打算接入哪个 AI 图像 API？或者先用模板融合方案？\n4. **支付渠道：** 微信支付商户资料是否已有？还是先用第三方聚合支付？\n5. **Logo/名字：** 最终产品叫什么名字？\n\n---\n\n## 九、参考站点功能清单\n\n| 功能 | 状态 | 备注 |\n|------|------|------|\n| 微信扫码登录 | ✅ | 需微信开放平台资质 |\n| 模板主题选择 | ✅ | 12个主题 |\n| 切片预览 | ✅ | 点击看大图 |\n| 角色图上传 | ✅ | 拖拽上传 |\n| 16宫格生成 | ✅ | 核心功能 |\n| 动图生成 | ✅ | 额外功能 |\n| 能量系统 | ✅ | 付费货币 |\n| 充值套餐 | ✅ | 6档套餐 |\n| 任务列表 | ✅ | 分页+状态筛选 |\n| 法律文档同意 | ✅ | 隐私/服务协议 |\n\n---\n\n*文档确认后开始开发。如有调整请随时告知。*\n"
    },
    {
      "id": "NUbmdiI2doSHlyxFUl6cMTmonAh",
      "title": "FundQuant基金量化平台设计方案 v1.0",
      "date": "2026-04-24",
      "category": "量化投资",
      "excerpt": "FundQuant基金量化平台完整设计方案，包含系统架构、API接口、数据流程、回测引擎等核心模块设计。",
      "source": "feishu",
      "feishuUrl": "https://my.feishu.cn/docx/NUbmdiI2doSHlyxFUl6cMTmonAh"
    },
    {
      "id": "HlGudNPBvoLbSDxB9T0cniv2ndd",
      "title": "麒麟操作系统测试工具 FAQ",
      "date": "2026-04-24",
      "category": "操作系统",
      "excerpt": "麒麟操作系统测试工具常见问题解答第二版。",
      "source": "feishu",
      "feishuUrl": "https://my.feishu.cn/docx/HlGudNPBvoLbSDxB9T0cniv2ndd"
    },
    {
      "id": "E0zBd80iUo3EJQxX4B8c1aDpnWf",
      "title": "麒麟操作系统测试工具FAQ",
      "date": "2026-04-24",
      "category": "操作系统",
      "excerpt": "麒麟操作系统测试工具常见问题解答，涵盖兼容性测试、安装部署、故障排查等。",
      "source": "feishu",
      "feishuUrl": "https://my.feishu.cn/docx/E0zBd80iUo3EJQxX4B8c1aDpnWf"
    },
    {
      "id": "2026-04-23-daodejing-plan",
      "title": "📜 道德经一个月学习计划",
      "date": "2026-04-23",
      "category": "经典研读",
      "excerpt": "《道德经》共81章，分上篇（道经第1-37章）和下篇（德经第38-81章）。计划每天学习1-3章，一个月完成。四周学习总览：入门、深化、应用、总结。",
      "source": "feishu",
      "feishuUrl": "https://my.feishu.cn/docx/NlMadlZBqoHSTPxe6adct2dpnCn"
    },
    {
      "id": "2026-04-23-daodejing-detail",
      "title": "📖 道德经逐章详解",
      "date": "2026-04-23",
      "category": "经典研读",
      "excerpt": "《道德经》共81章，分上篇（道经1-37章）和下篇（德经38-81章）。本文档逐章详解原文、翻译、解读与启示，涵盖众妙之门、无为而治、上善若水等核心篇章。",
      "source": "feishu",
      "feishuUrl": "https://my.feishu.cn/docx/K6ftdacS7o5oVzxm2E1c3i3XnFd"
    },
    {
      "id": "2026-04-14-fund-dev-doc",
      "title": "基金分析系统 - 开发文档 v1.0",
      "date": "2026-04-14",
      "category": "开发文档",
      "excerpt": "基于 fenxi.imoons.cn 架构，设计全新的 A股基金分析平台，支持基金筛选、持仓管理、组合回测、接入且慢 MCP 数据源。",
      "source": "feishu",
      "feishuUrl": "https://my.feishu.cn/docx/PvZfdUEimo6A2Kx4AgOcqjmTn8f"
    },
    {
      "id": "2026-04-11-website-test-tianxia-simple",
      "title": "网站功能测试报告 - 天下兴农系统",
      "date": "2026-04-11",
      "category": "测试报告",
      "excerpt": "天下兴农系统初步功能测试，覆盖登录、菜单、9个功能模块的表格、表单、按钮操作验证，核心功能均运行正常。",
      "source": "feishu",
      "feishuUrl": "https://my.feishu.cn/docx/M6O3dnzdCoknE7xU773cNg0Rneb"
    },
    {
      "id": "2026-04-11-website-test-tianxia",
      "title": "网站功能全面测试报告 - 天下兴农系统",
      "date": "2026-04-11",
      "category": "测试报告",
      "excerpt": "天下兴农系统黑盒功能测试，10个模块核心功能运行正常，8个模块增删改查功能可用，建议增加搜索和导出功能。",
      "source": "feishu",
      "feishuUrl": "https://my.feishu.cn/docx/JKlMdpfQ9otUuDxnnegcJM9JnMb"
    },
    {
      "id": "2026-04-11-website-test-strict",
      "title": "网站功能全面测试报告(严格验证版)",
      "date": "2026-04-11",
      "category": "测试报告",
      "excerpt": "天下兴农系统功能全面测试，涵盖登录、基础信息管理、软件/硬件/OS登记、工单管理等9个模块，发现搜索功能缺失、新增/编辑功能存在Bug等问题。",
      "source": "feishu",
      "feishuUrl": "https://my.feishu.cn/docx/WTHfdnohwoMDxfxwPdRc8OX2nuD"
    },
    {
      "id": "2026-04-11-website-dev-doc",
      "title": "个人IP网站开发文档",
      "date": "2026-04-11",
      "category": "开发文档",
      "excerpt": "不二个人IP网站完整开发文档，包含架构设计、功能规划、部署方案，核心功能：首页展示、日记、文档、技能、关于页面。",
      "source": "feishu",
      "feishuUrl": "https://my.feishu.cn/docx/RSFwd7r2coej4KxoehYcAkPHnld"
    },
    {
      "id": "2026-04-11-buer-content-draft",
      "title": "不二内容草稿",
      "date": "2026-04-11",
      "category": "内容草稿",
      "excerpt": "不二网站专属内容草稿文档，用于存放待发布的文章草稿，通过AI辅助创作。",
      "source": "feishu",
      "feishuUrl": "https://my.feishu.cn/docx/EDs8dUD7ooKnu1xtYFVcGfXIn5e"
    },
    {
      "id": "2026-04-10-qieman-mcp-guide",
      "title": "盈米且慢MCP使用指南",
      "date": "2026-04-10",
      "category": "工具指南",
      "excerpt": "盈米且慢MCP金融工具包使用指南，包含72个金融工具的详细说明和接入指引。",
      "source": "feishu",
      "feishuUrl": "https://yingmi.feishu.cn/docx/PRPRds5SBo2MITxHJL2cMPminEf"
    },
    {
      "id": "2026-04-07-pengfei-life-plan",
      "title": "鹏飞人生规划分析报告",
      "date": "2026-04-07",
      "category": "人生规划",
      "excerpt": "基于24天对话记录综合分析鹏飞的性格特征、优势劣势，提出三个人生赛道建议：AI自动化服务、旧衣回收规模化、内容+工具站。",
      "source": "feishu",
      "feishuUrl": "https://my.feishu.cn/docx/YNuxdVOhtov2SixzJ6Uctu9gnce"
    },
    {
      "id": "2026-04-04-clothes-optimize",
      "title": "旧衣回收副业优化方案（2026年）",
      "date": "2026-04-04",
      "category": "副业方案",
      "excerpt": "旧衣回收副业现状诊断与优化，目标6个月内月收入达到1500-2000元，包含闲鱼优化、淘宝优化、私域运营和每日执行时间表。",
      "source": "feishu",
      "feishuUrl": "https://my.feishu.cn/docx/NoZodCXsBoLBlpxo9CdcRqD6nyb"
    },
    {
      "id": "2026-04-02-system-test-report-vendor",
      "title": "厂商端系统测试报告",
      "date": "2026-04-02",
      "category": "测试报告",
      "excerpt": "国产自主安全生态智联服务平台厂商端功能测试报告，包含69个测试用例，发现28个严重缺陷。",
      "source": "feishu",
      "feishuUrl": "https://my.feishu.cn/docx/OYsBdiyJBouwUaxCqRQckkDOnoc"
    },
    {
      "id": "2026-04-02-clothes-miniprogram",
      "title": "旧衣回收微信小程序 - 开发计划",
      "date": "2026-04-02",
      "category": "开发文档",
      "excerpt": "「漫鸟回收」微信小程序完整开发计划，包含西瓜猪API对接、后端API规划、小程序页面清单、4阶段开发计划（18-26天工期）。",
      "source": "feishu",
      "feishuUrl": "https://my.feishu.cn/docx/MJ8ad2hh9oHSMlx4q2OcKlTYnqe"
    },
    {
      "id": "2026-03-31-system-test-report",
      "title": "系统功能测试报告",
      "date": "2026-03-31",
      "category": "测试报告",
      "excerpt": "国产自主安全生态智联服务平台管理端功能测试报告，57个用例，覆盖19个测试维度。",
      "source": "feishu",
      "feishuUrl": "https://my.feishu.cn/docx/SZmPdYjsxop5InxGXdqcLxwxnug"
    },
    {
      "id": "2026-03-29-ai-partner-plan",
      "title": "鹏飞 · 30天AI伙伴共创计划",
      "date": "2026-03-29",
      "category": "人生规划",
      "excerpt": "基于20天对话记录分析鹏飞的行为模式与优势，提出两个人生赛道选项（副业内容矩阵 vs AI开发服务），并制定30天聚焦行动计划。",
      "source": "feishu",
      "feishuUrl": "https://my.feishu.cn/docx/L6ZSdCaIyo09h0xLRlycgIdHnhh"
    }
  ]
}